Exercise #2
…
Theresa Walter

12.01.2022

Loaded packages

library(tidyverse)
library(lubridate)
library(zoo)

1. Quality control procedures (4 QCPs)

Data set from HOBO 1076071 from 2021-12-13 00:00:00 until 2021-01-09 23:50:00

## # A tibble: 4,032 x 4
##       id dttm                 temp   lux
##    <dbl> <dttm>              <dbl> <dbl>
##  1     1 2021-12-13 00:00:00  5.24     0
##  2     2 2021-12-13 00:10:00  5.24     0
##  3     3 2021-12-13 00:20:00  5.24     0
##  4     4 2021-12-13 00:30:00  5.24     0
##  5     5 2021-12-13 00:40:00  5.35     0
##  6     6 2021-12-13 00:50:00  5.35     0
##  7     7 2021-12-13 01:00:00  5.45     0
##  8     8 2021-12-13 01:10:00  5.55     0
##  9     9 2021-12-13 01:20:00  5.55     0
## 10    10 2021-12-13 01:30:00  5.55     0
## # ... with 4,022 more rows

1.1 Measurement range (Plausible values)

The measurement range of HOBO is for temperature from -20C to 70C in air and for light intensity from 0 to 320000 lux.

data <- data %>% 
    mutate(qcp1 = case_when(temp < -20 ~ 1, # flagging values < -20C
          temp > 70 ~ 1, # flagging values > 70C
          # lux < 0 ~ 1,
          # lux > 320000 ~ 1,
          TRUE ~ 0))
data

## # A tibble: 4,032 x 5
##       id dttm                 temp   lux  qcp1
##    <dbl> <dttm>              <dbl> <dbl> <dbl>
##  1     1 2021-12-13 00:00:00  5.24     0     0
##  2     2 2021-12-13 00:10:00  5.24     0     0
##  3     3 2021-12-13 00:20:00  5.24     0     0
##  4     4 2021-12-13 00:30:00  5.24     0     0
##  5     5 2021-12-13 00:40:00  5.35     0     0
##  6     6 2021-12-13 00:50:00  5.35     0     0
##  7     7 2021-12-13 01:00:00  5.45     0     0
##  8     8 2021-12-13 01:10:00  5.55     0     0
##  9     9 2021-12-13 01:20:00  5.55     0     0
## 10    10 2021-12-13 01:30:00  5.55     0     0
## # ... with 4,022 more rows
…
                           lag(sic) == "cat2" ~ 1, #set 0 if sunshine +- 1 before or ahead
                           sic == "cat2" ~ 1,
                           lead(sic) == "cat2" ~ 1,
                           
                           TRUE ~ 0))

data

## # A tibble: 4,032 x 9
##       id dttm                 temp   lux  qcp1  qcp2  qcp3 sic    qcp4
##    <dbl> <dttm>              <dbl> <dbl> <dbl> <dbl> <dbl> <chr> <dbl>
##  1     1 2021-12-13 00:00:00  5.24     0     0    NA    NA cat1      0
##  2     2 2021-12-13 00:10:00  5.24     0     0     0    NA cat1      0
##  3     3 2021-12-13 00:20:00  5.24     0     0     0    NA cat1      0
##  4     4 2021-12-13 00:30:00  5.24     0     0     0    NA cat1      0
##  5     5 2021-12-13 00:40:00  5.35     0     0     0     0 cat1      0
##  6     6 2021-12-13 00:50:00  5.35     0     0     0     0 cat1      0
##  7     7 2021-12-13 01:00:00  5.45     0     0     0     0 cat1      0
##  8     8 2021-12-13 01:10:00  5.55     0     0     0     0 cat1      0
##  9     9 2021-12-13 01:20:00  5.55     0     0     0     0 cat1      0
## 10    10 2021-12-13 01:30:00  5.55     0     0     0     0 cat1      0
## # ... with 4,022 more rows
…
